Project 1: Wrangling, Exploration, Visualization
…
Here I have removed the comma in lgbtadpop variable, and the percent sign in 5 of the variables and converted them into numeric variables making it possible to do numeric statistics. Your discussion of wrangling section here. Feel encouraged to break up into more than once code chunk and discuss each in turn.

lgbt <- lgbt %>% mutate(marriageratio = favormarriage/opposemarriage)
lgbtarranged1 <- lgbt %>% arrange(-favormarriage) %>% gt
head(lgbtarranged1)

## $`_data`
## # A tibble: 51 x 13
##    State totaladpop lgbtadpop lgbtpopdensity percentindivkids percentcouplesk
##    <chr>      <dbl>     <dbl>          <dbl>            <dbl>            <dbl>
##  1 verm     626299     30000            5.2               23             18.6
##  2 mass    6902149    335000            5.4               21             17.1
##  3 conn    3572665    133000            3.9               20             17  
##  4 new     1356458     59000            4.7               31             16.5
##  5 maine    1338404     60000            4.9               21             13.8
##  6 rhod    1057315     44000            4.5               19             15.5
##  7 dist     702455     58000            9.8                9              8.7
##  8 cali   39557045   1859000            5.3               24             16  
##  9 colo    5695564    234000            4.6               25             15.9
## 10 new    19542209    913000            5.1               22             16.4
## #  with 41 more rows, and 7 more variables: SOpolicy <dbl>, GIpolicy <dbl>,
## #   overallpolicy <dbl>, favormarriage <dbl>, opposemarriage <dbl>,
## #   state.region <fct>, marriageratio <dbl>
## 
## $`_boxhead`
…
##  2 totaladpop         default <chr [1]>    right        <NULL>       <NULL>   
##  3 lgbtadpop          default <chr [1]>    right        <NULL>       <NULL>   
##  4 lgbtpopdensity     default <chr [1]>    right        <NULL>       <NULL>   
##  5 percentindivkids   default <chr [1]>    right        <NULL>       <NULL>   
##  6 percentcoupleskids default <chr [1]>    right        <NULL>       <NULL>   
##  7 SOpolicy           default <chr [1]>    right        <NULL>       <NULL>   
##  8 GIpolicy           default <chr [1]>    right        <NULL>       <NULL>   
##  9 overallpolicy      default <chr [1]>    right        <NULL>       <NULL>   
## 10 favormarriage      default <chr [1]>    right        <NULL>       <NULL>   
## 11 opposemarriage     default <chr [1]>    right        <NULL>       <NULL>   
## 12 state.region       default <chr [1]>    center       <NULL>       <NULL>   
## 13 marriageratio      default <chr [1]>    right        <NULL>       <NULL>   
## 
## $`_stub_df`
## # A tibble: 51 x 3
##    rownum_i groupname rowname
##       <int> <chr>     <chr>  
##  1        1 <NA>      <NA>   
##  2        2 <NA>      <NA>   
##  3        3 <NA>      <NA>   
##  4        4 <NA>      <NA>   
##  5        5 <NA>      <NA>   
##  6        6 <NA>      <NA>   
##  7        7 <NA>      <NA>   
##  8        8 <NA>      <NA>   
##  9        9 <NA>      <NA>   
## 10       10 <NA>      <NA>   
## #  with 41 more rows
## 
## $`_row_groups`
## character(0)
## 
## $`_stub_others`
## [1] NA
## 
## $`_heading`
## $`_heading`$title
## NULL
## 
## $`_heading`$subtitle
## NULL

lgbtarranged2 <- lgbt %>% arrange(-marriageratio) %>% gt
head(lgbtarranged2)

## $`_data`
## # A tibble: 51 x 13
##    State totaladpop lgbtadpop lgbtpopdensity percentindivkids percentcouplesk
##    <chr>      <dbl>     <dbl>          <dbl>            <dbl>            <dbl>
##  1 verm     626299     30000            5.2               23             18.6
##  2 mass    6902149    335000            5.4               21             17.1
##  3 conn    3572665    133000            3.9               20             17  
##  4 new     1356458     59000            4.7               31             16.5
##  5 dist     702455     58000            9.8                9              8.7
##  6 rhod    1057315     44000            4.5               19             15.5
##  7 maine    1338404     60000            4.9               21             13.8
##  8 new    19542209    913000            5.1               22             16.4
##  9 colo    5695564    234000            4.6               25             15.9
## 10 wash    7535591    342000            5.2               28             15.8
## #  with 41 more rows, and 7 more variables: SOpolicy <dbl>, GIpolicy <dbl>,
## #   overallpolicy <dbl>, favormarriage <dbl>, opposemarriage <dbl>,
## #   state.region <fct>, marriageratio <dbl>
## 
## $`_boxhead`
…
##  2 totaladpop         default <chr [1]>    right        <NULL>       <NULL>   
##  3 lgbtadpop          default <chr [1]>    right        <NULL>       <NULL>   
##  4 lgbtpopdensity     default <chr [1]>    right        <NULL>       <NULL>   
##  5 percentindivkids   default <chr [1]>    right        <NULL>       <NULL>   
##  6 percentcoupleskids default <chr [1]>    right        <NULL>       <NULL>   
##  7 SOpolicy           default <chr [1]>    right        <NULL>       <NULL>   
##  8 GIpolicy           default <chr [1]>    right        <NULL>       <NULL>   
##  9 overallpolicy      default <chr [1]>    right        <NULL>       <NULL>   
## 10 favormarriage      default <chr [1]>    right        <NULL>       <NULL>   
## 11 opposemarriage     default <chr [1]>    right        <NULL>       <NULL>   
## 12 state.region       default <chr [1]>    center       <NULL>       <NULL>   
## 13 marriageratio      default <chr [1]>    right        <NULL>       <NULL>   
## 
## $`_stub_df`
## # A tibble: 51 x 3
##    rownum_i groupname rowname
##       <int> <chr>     <chr>  
##  1        1 <NA>      <NA>   
##  2        2 <NA>      <NA>   
##  3        3 <NA>      <NA>   
##  4        4 <NA>      <NA>   
##  5        5 <NA>      <NA>   
##  6        6 <NA>      <NA>   
##  7        7 <NA>      <NA>   
##  8        8 <NA>      <NA>   
##  9        9 <NA>      <NA>   
## 10       10 <NA>      <NA>   
## #  with 41 more rows
## 
## $`_row_groups`
## character(0)
## 
## $`_stub_others`
## [1] NA
## 
## $`_heading`
…
